### CE
### records info
id_vehicle      	date       	note                                               	mileage     	volume   	volumecost   	cost               	type            	full   	mark   	costmileage     	mileagevolume   	volumemileage   	mileageadd      	tankvolume 	latitude        	longtitude     
Тест            	20150918   	                                                   	55000       	40       	35,35        	1414               	АИ-98           	0      	10     	0               	0               	0               	0               	0        	0               	0              
Тест            	20150918   	                                                   	55400       	41,5     	35,35        	1467,02            	АИ-98           	0      	10     	3,66756         	9,63855         	10,375          	400             	0        	0               	0              
